20220830 00:31:20.922 ERROR    uev- CNX broken with peer 0 38 12
20220830 00:31:20.923 ERROR    uev- Connection Error with UE (Header) = 0

20220830 00:31:20.923 ERROR    uev- closing the connection with peer

