20220829 09:13:14.866 ERROR    uev- CNX broken with peer 0 38 12
20220829 09:13:14.867 ERROR    uev- Connection Error with UE (Header) = 0

20220829 09:13:14.867 ERROR    uev- closing the connection with peer

