20220829 20:57:59.922 ERROR    uev- CNX broken with peer 0 38 12
20220829 20:57:59.923 ERROR    uev- Connection Error with UE (Header) = 0

20220829 20:57:59.923 ERROR    uev- closing the connection with peer

