20220829 08:49:07.986 ERROR    uev- CNX broken with peer 0 38 12
20220829 08:49:07.987 ERROR    uev- Connection Error with UE (Header) = 0

20220829 08:49:07.987 ERROR    uev- closing the connection with peer

