20220829 21:22:03.342 ERROR    uev- CNX broken with peer 0 38 12
20220829 21:22:03.342 ERROR    uev- Connection Error with UE (Header) = 0

20220829 21:22:03.343 ERROR    uev- closing the connection with peer

